{
  "name": "environment",
  "$schema": "../../node_modules/nx/schemas/project-schema.json",
  "sourceRoot": "libs/environment/src",
  "projectType": "library",
  "targets": {
    "build": {
      "executor": "@nrwl/js:tsc",
      "outputs": ["{options.outputPath}"],
      "options": {
        "outputPath": "dist/libs/environment",
        "main": "libs/environment/src/index.ts",
        "tsConfig": "libs/environment/tsconfig.lib.json",
        "assets": ["libs/environment/*.md"]
      }
    },
    "lint": {
      "executor": "@nrwl/linter:eslint",
      "outputs": ["{options.outputFile}"],
      "options": {
        "lintFilePatterns": ["libs/environment/**/*.ts"]
      }
    },
    "test": {
      "executor": "@nrwl/jest:jest",
      "outputs": ["{workspaceRoot}/coverage/{projectRoot}"],
      "options": {
        "jestConfig": "libs/environment/jest.config.ts",
        "passWithNoTests": true
      },
      "configurations": {
        "ci": {
          "ci": true,
          "codeCoverage": true
        }
      }
    }
  },
  "tags": []
}
